{
  "dataModel.Aeronautics": "https://raw.githubusercontent.com/smart-data-models/dataModel.Aeronautics/master/context.jsonld",
  "dataModel.Agrifood": "https://raw.githubusercontent.com/smart-data-models/dataModel.Agrifood/master/context.jsonld",
  "dataModel.Alert": "https://raw.githubusercontent.com/smart-data-models/dataModel.Alert/master/context.jsonld",
  "dataModel.Aquaculture": "https://raw.githubusercontent.com/smart-data-models/dataModel.Aquaculture/master/context.jsonld",
  "dataModel.AutonomousMobileRobot": "https://raw.githubusercontent.com/smart-data-models/dataModel.AutonomousMobileRobot/master/context.jsonld",
  "dataModel.Battery": "https://raw.githubusercontent.com/smart-data-models/dataModel.Battery/master/context.jsonld",
  "dataModel.Building": "https://raw.githubusercontent.com/smart-data-models/dataModel.Building/master/context.jsonld",
  "dataModel.CallComplaints": "https://raw.githubusercontent.com/smart-data-models/dataModel.CallComplaints/master/context.jsonld",
  "dataModel.Consumption": "https://raw.githubusercontent.com/smart-data-models/dataModel.Consumption/master/context.jsonld",
  "dataModel.COVID19": "https://raw.githubusercontent.com/smart-data-models/dataModel.COVID19/master/context.jsonld",
  "dataModel.CPSV-AP": "https://github.com/smart-data-models/dataModel.CPSV-AP.git",
  "dataModel.DataQuality": "https://raw.githubusercontent.com/smart-data-models/dataModel.DataQuality/master/context.jsonld",
  "dataModel.DCAT-AP": "https://raw.githubusercontent.com/smart-data-models/dataModel.DCAT-AP/master/context.jsonld",
  "dataModel.Device": "https://raw.githubusercontent.com/smart-data-models/dataModel.Device/master/context.jsonld",
  "dataModel.DigitalInnovationHub": "https://raw.githubusercontent.com/smart-data-models/dataModel.DigitalInnovationHub/master/context.jsonld",
  "dataModel.DistributedLedgerTech": "https://raw.githubusercontent.com/smart-data-models/dataModel.DistributedLedgerTech/master/context.jsonld",
  "dataModel.Energy": "https://raw.githubusercontent.com/smart-data-models/dataModel.Energy/master/context.jsonld",
  "dataModel.EnergyCIM": "https://raw.githubusercontent.com/smart-data-models/dataModel.EnergyCIM/master/context.jsonld",
  "dataModel.Environment": "https://raw.githubusercontent.com/smart-data-models/dataModel.Environment/master/context.jsonld",
  "dataModel.Forestry": "https://raw.githubusercontent.com/smart-data-models/dataModel.Forestry/master/context.jsonld",
  "dataModel.FrictionlessData": "https://raw.githubusercontent.com/smart-data-models/dataModel.FrictionlessData/master/context.jsonld",
  "dataModel.GBFS": "https://raw.githubusercontent.com/smart-data-models/dataModel.GBFS/master/context.jsonld",
  "dataModel.GreenEnergy": "https://raw.githubusercontent.com/smart-data-models/dataModel.GreenEnergy/master/context.jsonld",
  "dataModel.Hl7": "https://raw.githubusercontent.com/smart-data-models/dataModel.Hl7/master/context.jsonld",
  "dataModel.IT": "https://raw.githubusercontent.com/smart-data-models/dataModel.IT/master/context.jsonld",
  "dataModel.IssueTracking": "https://raw.githubusercontent.com/smart-data-models/dataModel.IssueTracking/master/context.jsonld",
  "dataModel.KeyPerformanceIndicator": "https://raw.githubusercontent.com/smart-data-models/dataModel.KeyPerformanceIndicator/master/context.jsonld",
  "dataModel.MachineLearning": "https://raw.githubusercontent.com/smart-data-models/dataModel.MachineLearning/master/context.jsonld",
  "dataModel.ManufacturingMachine": "https://raw.githubusercontent.com/smart-data-models/dataModel.ManufacturingMachine/master/context.jsonld",
  "dataModel.MarineTransport": "https://raw.githubusercontent.com/smart-data-models/dataModel.MarineTransport/master/context.jsonld",
  "dataModel.Multimedia": "https://raw.githubusercontent.com/smart-data-models/dataModel.Multimedia/master/context.jsonld",
  "dataModel.OCF": "https://raw.githubusercontent.com/smart-data-models/dataModel.OCF/master/context.jsonld",
  "dataModel.OPCUA": "https://raw.githubusercontent.com/smart-data-models/dataModel.OPCUA/master/context.jsonld",
  "dataModel.OpenChannelManagement": "https://raw.githubusercontent.com/smart-data-models/dataModel.OpenChannelManagement/master/context.jsonld",
  "dataModel.Organization": "https://raw.githubusercontent.com/smart-data-models/dataModel.Organization/master/context.jsonld",
  "dataModel.OSLO": "https://raw.githubusercontent.com/smart-data-models/dataModel.OSLO/master/context.jsonld",
  "dataModel.Parking": "https://raw.githubusercontent.com/smart-data-models/dataModel.Parking/master/context.jsonld",
  "dataModel.ParksAndGardens": "https://raw.githubusercontent.com/smart-data-models/dataModel.ParksAndGardens/master/context.jsonld",
  "dataModel.PointOfInteraction": "https://raw.githubusercontent.com/smart-data-models/dataModel.PointOfInteraction/master/context.jsonld",
  "dataModel.PointOfInterest": "https://raw.githubusercontent.com/smart-data-models/dataModel.PointOfInterest/master/context.jsonld",
  "dataModel.Ports": "https://raw.githubusercontent.com/smart-data-models/dataModel.Ports/master/context.jsonld",
  "dataModel.PublicAccountability": "https://raw.githubusercontent.com/smart-data-models/dataModel.PublicAccountability/master/context.jsonld",
  "dataModel.QueueManagement": "https://raw.githubusercontent.com/smart-data-models/dataModel.QueueManagement/master/context.jsonld",
  "dataModel.RiskManagement": "https://raw.githubusercontent.com/smart-data-models/dataModel.RiskManagement/master/context.jsonld",
  "dataModel.RoboticIndustrialActivities": "https://raw.githubusercontent.com/smart-data-models/dataModel.RoboticIndustrialActivities/master/context.jsonld",
  "dataModel.SAREF": "https://github.com/smart-data-models/dataModel.SAREF.git",
  "dataModel.SatelliteImagery": "https://raw.githubusercontent.com/smart-data-models/dataModel.SatelliteImagery/master/context.jsonld",
  "dataModel.SDMX": "https://raw.githubusercontent.com/smart-data-models/dataModel.SDMX/master/context.jsonld",
  "dataModel.SocialMedia": "https://raw.githubusercontent.com/smart-data-models/dataModel.SocialMedia/master/context.jsonld",
  "dataModel.Streetlighting": "https://raw.githubusercontent.com/smart-data-models/dataModel.Streetlighting/master/context.jsonld",
  "dataModel.S4BLDG": "https://github.com/smart-data-models/dataModel.S4BLDG.git",
  "dataModel.S4SYST": "https://github.com/smart-data-models/dataModel.S4SYST.git",
  "dataModel.TourismDestinations": "https://raw.githubusercontent.com/smart-data-models/dataModel.TourismDestinations/master/context.jsonld",
  "dataModel.Transportation": "https://raw.githubusercontent.com/smart-data-models/dataModel.Transportation/master/context.jsonld",
  "dataModel.UrbanMobility": "https://raw.githubusercontent.com/smart-data-models/dataModel.UrbanMobility/master/context.jsonld",
  "dataModel.UnmannedAerialVehicle": "https://raw.githubusercontent.com/smart-data-models/dataModel.UnmannedAerialVehicle/master/context.jsonld",
  "dataModel.User": "https://raw.githubusercontent.com/smart-data-models/dataModel.User/master/context.jsonld",
  "dataModel.VerifiableCredentials": "https://github.com/smart-data-models/dataModel.VerifiableCredentials.git",
  "dataModel.WasteManagement": "https://raw.githubusercontent.com/smart-data-models/dataModel.WasteManagement/master/context.jsonld",
  "dataModel.WasteWater": "https://raw.githubusercontent.com/smart-data-models/dataModel.WasteWater/master/context.jsonld",
  "dataModel.WaterConsumption": "https://raw.githubusercontent.com/smart-data-models/dataModel.WaterConsumption/master/context.jsonld",
  "dataModel.WaterDistribution": "https://raw.githubusercontent.com/smart-data-models/dataModel.WaterDistribution/master/context.jsonld",
  "dataModel.WaterDistributionManagementEPANET": "https://raw.githubusercontent.com/smart-data-models/dataModel.WaterDistributionManagementEPANET/master/context.jsonld",
  "dataModel.WaterQuality": "https://raw.githubusercontent.com/smart-data-models/dataModel.WaterQuality/master/context.jsonld",
  "dataModel.Weather": "https://raw.githubusercontent.com/smart-data-models/dataModel.Weather/master/context.jsonld",
  "dataModel.WifiNetwork": "https://raw.githubusercontent.com/smart-data-models/dataModel.WifiNetwork/master/context.jsonld"
}
